[gd_scene load_steps=5 format=2]

[ext_resource path="res://Props/InfoProp/InfoProp.tscn" type="PackedScene" id=1]
[ext_resource path="res://Props/InfoProp/Flowers/FlowersBitmask.png" type="BitMap" id=2]
[ext_resource path="res://Props/InfoProp/Flowers/FlowersNormal.png" type="Texture" id=3]
[ext_resource path="res://Props/InfoProp/Flowers/FlowersHover.png" type="Texture" id=4]

[node name="Flowers" type="Node2D"]

[node name="InfoProp" parent="." instance=ExtResource( 1 )]
margin_left = -58.7401
margin_top = -92.37
margin_right = 109.26
margin_bottom = 89.63
texture_normal = ExtResource( 3 )
texture_hover = ExtResource( 4 )
texture_click_mask = ExtResource( 2 )
stretch_mode = 2
_infoText = "Flowers with a note. It's encrypted. The note says:xxx saiboT evoL!pu emoc uoy ees enoyna tel t’noD.yaddim ta eciffo ym ni uoy eeS !yadot ,etad hcnul ruo tuoba deticxEimiM tseraeD"
_infoTextList = [ "Flowers with a note.", " It's encrypted. The note says:", "xxx saiboT evoL", "!pu emoc uoy ees enoyna tel t’noD", ".yaddim ta eciffo ym ni uoy eeS !yadot ,etad hcnul ruo tuoba deticxE", "imiM tseraeD" ]

[node name="Sprite" parent="InfoProp" index="1"]
visible = false
region_rect = Rect2( 1002.21, 220.243, 83.0786, 133.429 )

[editable path="InfoProp"]
